{
    "KPackageStructure": "KWin/WindowSwitcher",
    "KPlugin": {
        "Authors": [
            {
                "Email": "isma.af@gmail.com",
                "Name": "Ismael Asensio",
                "Name[ar]": "Ismael Asensio",
                "Name[az]": "Ismael Asensio",
                "Name[bg]": "Ismael Asensio",
                "Name[ca@valencia]": "Ismael Asensio",
                "Name[ca]": "Ismael Asensio",
                "Name[cs]": "Ismael Asensio",
                "Name[de]": "Ismael Asensio",
                "Name[en_GB]": "Ismael Asensio",
                "Name[eo]": "Ismael Asensio",
                "Name[es]": "Ismael Asensio",
                "Name[eu]": "Ismael Asensio",
                "Name[fi]": "Ismael Asensio",
                "Name[fr]": "Ismael Asensio",
                "Name[gl]": "Ismael Asensio",
                "Name[ia]": "Ismael Asensio",
                "Name[id]": "Ismael Asensio",
                "Name[is]": "Ismael Asensio",
                "Name[it]": "Ismael Asensio",
                "Name[ja]": "Ismael Asensio",
                "Name[ka]": "Ismael Asensio",
                "Name[ko]": "Ismael Asensio",
                "Name[lt]": "Ismael Asensio",
                "Name[nl]": "Ismael Asensio",
                "Name[nn]": "Ismael Asensio",
                "Name[pl]": "Ismael Asensio",
                "Name[pt]": "Ismael Asensio",
                "Name[pt_BR]": "Ismael Asensio",
                "Name[ro]": "Ismael Asensio",
                "Name[ru]": "Ismael Asensio",
                "Name[sk]": "Ismael Asensio",
                "Name[sl]": "Ismael Asensio",
                "Name[sv]": "Ismael Asensio",
                "Name[tr]": "Ismael Asensio",
                "Name[uk]": "Ismael Asensio",
                "Name[vi]": "Ismael Asensio",
                "Name[x-test]": "xxIsmael Asensioxx",
                "Name[zh_CN]": "Ismael Asensio",
                "Name[zh_TW]": "Ismael Asensio"
            }
        ],
        "Description": "A Window Switcher layout showing thumbnails as a 3D carousel",
        "Description[ar]": "مبدل نوافذ يعرض كل النوافذ كمصغرات على شكل دائري ثلاثي الأبعاد.",
        "Description[az]": "Miniatürləri 3D karusel şəklində göstərən pəncərə dəyişdirici maketi",
        "Description[bg]": "Оформление на превключвател на прозорци, показващо всички прозорци като миниатюри в триизмерна въртележка",
        "Description[ca@valencia]": "Una disposició del commutador de finestres que mostra les miniatures com un carrusel en 3D",
        "Description[ca]": "Una disposició del commutador de finestres que mostra les miniatures com un carrusel en 3D",
        "Description[cs]": "Rozvržení přepínače oken zobrazující náhledy jako 3D kolotoč",
        "Description[de]": "Ein Fensterwechsler-Layout, das Vorschauen aller Fenster als 3D-Karussell anzeigt",
        "Description[en_GB]": "A Window Switcher layout showing thumbnails as a 3D carousel",
        "Description[eo]": "Enpaĝigo de Window Switcher montranta bildetojn kiel 3D karuselo",
        "Description[es]": "Un esquema de selección de ventanas que muestra miniaturas como una presentación en 3D",
        "Description[eu]": "Koadro-txikiak 3Dko karrusel moduan erakusten dituen leiho-trukatzaile antolamendu bat.",
        "Description[fi]": "Ikkunavaihtoasettelu, joka esittää pienoiskuvat kolmiulotteisena karusellina",
        "Description[fr]": "Une disposition du sélecteur de fenêtres affichant des vignettes comme un carrousel en 3D",
        "Description[gl]": "Unha disposición do selector de xanelas que mostra miniaturas nun carrusel 3D",
        "Description[ia]": "Un disposition de commutator de fenestra monstrante miniaturas como  un carosello 3D",
        "Description[id]": "Sebuah tataletak pengalih jendela yang menampilkan gambar mini sebagai korsel 3D",
        "Description[it]": "Una disposizione del selettore delle finestre che mostra le miniature come una giostra 3D",
        "Description[ja]": "サムネイルを 3D カルーセルで表示するウィンドウスイッチャー",
        "Description[ka]": "ფანჯრების გადართვა მინიატურების 3D კარუსელის ჩვენებით",
        "Description[ko]": "축소판을 3D 상자로 표시하는 창 전환기 레이아웃",
        "Description[lt]": "Langų perjungiklio išdėstymas, atvaizduojantis miniatiūras kaip trimatę karuselę",
        "Description[nl]": "Een indeling van de vensterwisselaar die miniaturen toont als 3D-carousel",
        "Description[nn]": "Vindaugsbytar som viser miniatyrbilete i ein 3D-karusell",
        "Description[pl]": "Przełącznik okien z miniaturami jako karuzela 3D",
        "Description[pt]": "Uma disposição de mudança de janelas que mostra miniaturas como um carrossel em 3D",
        "Description[pt_BR]": "Um layout de seletor de janelas que mostra todas as miniaturas como um carrossel 3D",
        "Description[ro]": "Aranjament pentru comutatorul de ferestre arătând miniaturi ca un carusel 3D",
        "Description[ru]": "Переключатель окон, использующий объёмный эффект карусели",
        "Description[sk]": "Rozloženie prepínača okien zobrazujúce miniatúry ako 3D kolotoč",
        "Description[sl]": "Razporeditev preklopa oken, ki prikazuje predogledne sličice kot vrtiljak",
        "Description[sv]": "En layout för fönsterbyte som visar miniatyrbilder som en tredimensionell karusell",
        "Description[tr]": "Küçük görselleri 3B atlıkarınca olarak gösteren bir pencere değiştirici düzeni",
        "Description[uk]": "Компонування засобу перемикання вікон з мініатюрами у вигляді просторово каруселі",
        "Description[vi]": "Bố cục trình chuyển cửa sổ hiển thị các hình nhỏ thành một băng chuyền 3D",
        "Description[x-test]": "xxA Window Switcher layout showing thumbnails as a 3D carouselxx",
        "Description[zh_CN]": "使用 3D 转盘风格显示缩略图的窗口切换器",
        "Description[zh_TW]": "用 3D 幻燈片顯示預覽的視窗切換器佈局",
        "Icon": "preferences-system-windows-effect-coverswitch",
        "Id": "coverswitch",
        "License": "GPL",
        "Name": "Cover Switch",
        "Name[ar]": "مبدل المستخدم",
        "Name[az]": "Üz qabığı dəyişdiricisi",
        "Name[bg]": "Параван",
        "Name[ca@valencia]": "Canvi de capa",
        "Name[ca]": "Canvi de capa",
        "Name[cs]": "Přehlídka oken",
        "Name[de]": "3D-Fenstergalerie",
        "Name[en_GB]": "Cover Switch",
        "Name[eo]": "Kovrilo Ŝaltilo",
        "Name[es]": "Selector de portadas",
        "Name[eu]": "Leiho-argazkien aldaketa",
        "Name[fi]": "Kansikuvavaihto",
        "Name[fr]": "Commutateur de couvertures",
        "Name[gl]": "Cambio en capas",
        "Name[ia]": "Commutator de copertura",
        "Name[id]": "Cover Switch",
        "Name[is]": "Síðuskiptir",
        "Name[it]": "Selezione circolare",
        "Name[ja]": "カバースイッチ",
        "Name[ka]": "ყდის შესვლა",
        "Name[ko]": "커버 전환기",
        "Name[nl]": "Omslagtonen",
        "Name[nn]": "Omslagvekslar",
        "Name[pl]": "Przełączanie okładek",
        "Name[pt]": "Mudança de Capas",
        "Name[pt_BR]": "Seletor de capa",
        "Name[ro]": "Schimbare copertă",
        "Name[ru]": "Карусель",
        "Name[sk]": "Prepínač krytu",
        "Name[sl]": "Stikalo pokrova",
        "Name[sv]": "Omslagsbyte",
        "Name[tr]": "Kapak Değiştirici",
        "Name[uk]": "Перемикач обкладинок",
        "Name[vi]": "Chuyển kiểu trang bìa",
        "Name[x-test]": "xxCover Switchxx",
        "Name[zh_CN]": "3D 封面切换",
        "Version": "1.0"
    },
    "X-Plasma-API": "declarativeappletscript",
    "X-Plasma-MainScript": "ui/main.qml"
}
