{
    "KPackageStructure": "KWin/WindowSwitcher",
    "KPlugin": {
        "Authors": [
            {
                "Email": "mgraesslin@kde.org",
                "Name": "Martin Gräßlin",
                "Name[ar]": "Martin Gräßlin",
                "Name[az]": "Martin Gräßlin",
                "Name[bg]": "Martin Gräßlin",
                "Name[ca@valencia]": "Martin Gräßlin",
                "Name[ca]": "Martin Gräßlin",
                "Name[cs]": "Martin Gräßlin",
                "Name[de]": "Martin Gräßlin",
                "Name[en_GB]": "Martin Gräßlin",
                "Name[eo]": "Martin Gräßlin",
                "Name[es]": "Martin Gräßlin",
                "Name[eu]": "Martin Gräßlin",
                "Name[fi]": "Martin Gräßlin",
                "Name[fr]": "Martin Gräßlin",
                "Name[gl]": "Martin Gräßlin",
                "Name[ia]": "Martin Gräßlin",
                "Name[id]": "Martin Gräßlin",
                "Name[is]": "Martin Gräßlin",
                "Name[it]": "Martin Gräßlin",
                "Name[ja]": "Martin Gräßlin",
                "Name[ka]": "მარტინ გრესსლინი",
                "Name[ko]": "Martin Gräßlin",
                "Name[lt]": "Martin Gräßlin",
                "Name[nl]": "Martin Gräßlin",
                "Name[nn]": "Martin Gräßlin",
                "Name[pl]": "Martin Gräßlin",
                "Name[pt]": "Martin Gräßlin",
                "Name[pt_BR]": "Martin Gräßlin",
                "Name[ro]": "Martin Gräßlin",
                "Name[ru]": "Martin Gräßlin",
                "Name[sk]": "Martin Gräßlin",
                "Name[sl]": "Martin Gräßlin",
                "Name[sv]": "Martin Gräßlin",
                "Name[tr]": "Martin Gräßlin",
                "Name[uk]": "Martin Gräßlin",
                "Name[vi]": "Martin Gräßlin",
                "Name[x-test]": "xxMartin Gräßlinxx",
                "Name[zh_CN]": "Martin Gräßlin",
                "Name[zh_TW]": "Martin Gräßlin"
            }
        ],
        "Description": "A window switcher layout using live thumbnails",
        "Description[ar]": "مخطط مبدل نوافذ يستخدم مصغرات حية",
        "Description[az]": "Canlı miniatürlər istifadə edən pəncərə dəyişdirici maketi",
        "Description[bg]": "Оформление на програмата за превключване на прозорци с използване на актуални миниатюри",
        "Description[ca@valencia]": "Una disposició del commutador de finestres que utilitza miniatures animades",
        "Description[ca]": "Una disposició del commutador de finestres que utilitza miniatures animades",
        "Description[cs]": "Přepínač oken s živými náhledy",
        "Description[de]": "Ein Fensterwechsler-Layout, das Live-Vorschauen verwendet",
        "Description[en_GB]": "A window switcher layout using live thumbnails",
        "Description[eo]": "Fenestra ŝaltilo-aranĝo uzante vivajn bildetojn",
        "Description[es]": "Un esquema de selección de ventanas que usa miniaturas en vivo",
        "Description[eu]": "Koadro-txiki bizidunak erabiltzen dituen leiho-trukatzaile antolamendu bat",
        "Description[fi]": "Dynaamisia pienoiskuvia käyttävä ikkunavaihtoasettelu",
        "Description[fr]": "Une disposition du sélecteur de fenêtres utilisant des vignettes en temps réel",
        "Description[gl]": "Unha disposición do selector de xanelas que usa miniaturas ao vivo",
        "Description[ia]": "Un disposition de commutator de fenestra usante miniaturas vive",
        "Description[id]": "Sebuah tataletak pengalih jendela yang menggunakan gambar-mini hidup",
        "Description[it]": "Una disposizione del selettore delle finestre che utilizza miniature dinamiche",
        "Description[ja]": "ライブサムネイルを使用するウィンドウスイッチャー",
        "Description[ka]": "ფანჯრების განლაგების გადართვა ცოცხალი მინიატურების ჩვენების საშუალებით",
        "Description[ko]": "라이브 축소판을 사용하는 창 전환기 레이아웃",
        "Description[lt]": "Langų perjungiklio išdėstymas, naudojantis tiesiogiai rodomas miniatiūras",
        "Description[nl]": "Een indeling van de vensterwisselaar met levende miniaturen",
        "Description[nn]": "Vindaugsbytar som brukar kontinuerleg oppdaterte miniatyrbilete",
        "Description[pl]": "Przełącznik okien z miniaturami na żywo",
        "Description[pt]": "Uma disposição de mudança de janelas que usa miniaturas actualizadas em directo",
        "Description[pt_BR]": "Um layout do seletor de janelas que usa miniaturas geradas na hora",
        "Description[ro]": "Aranjament pentru comutatorul de ferestre folosind pictograme vii",
        "Description[ru]": "Переключатель окон в виде «живых» миниатюр окон",
        "Description[sk]": "Rozloženie prepínača okien používajúce živé miniatúry",
        "Description[sl]": "Razporeditev preklopa oken, ki uporablja žive predogledne sličice",
        "Description[sv]": "En layout för fönsterbyte som använder direkta miniatyrbilder",
        "Description[tr]": "Canlı küçük görseller kullanan bir pencere değiştirici düzeni",
        "Description[uk]": "Компонування засобу перемикання вікон з мініатюрами поточного стану вікон",
        "Description[vi]": "Bố cục trình chuyển cửa sổ dùng các hình nhỏ động",
        "Description[x-test]": "xxA window switcher layout using live thumbnailsxx",
        "Description[zh_CN]": "显示实时窗口预览的窗口切换器布局",
        "Description[zh_TW]": "使用即時縮圖的視窗切換器佈局",
        "Icon": "preferences-system-windows-switcher-thumbnails",
        "Id": "thumbnails",
        "License": "GPL",
        "Name": "Thumbnails",
        "Name[ar]": "مصغّرات",
        "Name[az]": "Miniatürlər",
        "Name[bg]": "Миниатюри",
        "Name[ca@valencia]": "Miniatures",
        "Name[ca]": "Miniatures",
        "Name[cs]": "Miniatury",
        "Name[de]": "Vorschaubilder",
        "Name[en_GB]": "Thumbnails",
        "Name[eo]": "Bildetojn",
        "Name[es]": "Miniaturas",
        "Name[eu]": "Koadro txikiak",
        "Name[fi]": "Pienoiskuvat",
        "Name[fr]": "Vignettes",
        "Name[gl]": "Miniaturas",
        "Name[ia]": "Miniaturas",
        "Name[id]": "Thumbnail",
        "Name[is]": "Smámyndir",
        "Name[it]": "Miniature",
        "Name[ja]": "サムネイル",
        "Name[ka]": "ესკიზები",
        "Name[ko]": "축소판",
        "Name[lt]": "Miniatiūros",
        "Name[nl]": "Miniaturen",
        "Name[nn]": "Miniatyrbilete",
        "Name[pl]": "Miniatury",
        "Name[pt]": "Miniaturas",
        "Name[pt_BR]": "Miniaturas",
        "Name[ro]": "Miniaturi",
        "Name[ru]": "Миниатюры",
        "Name[sk]": "Miniatúry",
        "Name[sl]": "Predogledne sličice",
        "Name[sv]": "Miniatyrbilder",
        "Name[tr]": "Küçük Görseller",
        "Name[uk]": "Мініатюри",
        "Name[vi]": "Hình nhỏ",
        "Name[x-test]": "xxThumbnailsxx",
        "Name[zh_CN]": "缩略图",
        "Name[zh_TW]": "縮圖",
        "Version": "1.0"
    },
    "X-Plasma-API": "declarativeappletscript",
    "X-Plasma-MainScript": "ui/main.qml"
}
