{
    "KPackageStructure": "Plasma/Applet",
    "KPlugin": {
        "Authors": [
            {
                "Email": "aleixpol@kde.org",
                "Name": "Aleix Pol Gonzalez",
                "Name[ar]": "Aleix Pol Gonzalez",
                "Name[az]": "Aleix Pol Gonzalez",
                "Name[bg]": "Aleix Pol Gonzalez",
                "Name[ca@valencia]": "Aleix Pol Gonzalez",
                "Name[ca]": "Aleix Pol Gonzalez",
                "Name[cs]": "Aleix Pol Gonzalez",
                "Name[de]": "Aleix Pol Gonzalez",
                "Name[en_GB]": "Aleix Pol Gonzalez",
                "Name[eo]": "Aleix Pol Gonzalez",
                "Name[es]": "Aleix Pol Gonzalez",
                "Name[eu]": "Aleix Pol Gonzalez",
                "Name[fi]": "Aleix Pol Gonzalez",
                "Name[fr]": "Aleix Pol Gonzalez",
                "Name[gl]": "Aleix Pol Gonzalez",
                "Name[ia]": "Aleix Pol Gonzalez",
                "Name[id]": "Aleix Pol Gonzalez",
                "Name[is]": "Aleix Pol Gonzalez",
                "Name[it]": "Aleix Pol Gonzalez",
                "Name[ja]": "Aleix Pol Gonzalez",
                "Name[ka]": "Aleix Pol Gonzalez",
                "Name[ko]": "Aleix Pol Gonzalez",
                "Name[lt]": "Aleix Pol Gonzalez",
                "Name[nl]": "Aleix Pol Gonzalez",
                "Name[nn]": "Aleix Pol Gonzalez",
                "Name[pl]": "Aleix Pol Gonzalez",
                "Name[pt]": "Aleix Pol Gonzalez",
                "Name[pt_BR]": "Aleix Pol Gonzalez",
                "Name[ro]": "Aleix Pol Gonzalez",
                "Name[ru]": "Aleix Pol Gonzalez",
                "Name[sk]": "Aleix Pol Gonzalez",
                "Name[sl]": "Aleix Pol Gonzalez",
                "Name[sv]": "Aleix Pol Gonzalez",
                "Name[tr]": "Aleix Pol Gonzalez",
                "Name[uk]": "Aleix Pol Gonzalez",
                "Name[vi]": "Aleix Pol Gonzalez",
                "Name[x-test]": "xxAleix Pol Gonzalezxx",
                "Name[zh_CN]": "Aleix Pol Gonzalez",
                "Name[zh_TW]": "Aleix Pol Gonzalez"
            }
        ],
        "Description": "Shows whether Caps Lock or Num Lock are active",
        "Description[ar]": "تعرض إذا ما كان قفل الأرقام أو الحروف الكبيرة مفعل",
        "Description[az]": "Caps Lock və ya Num Lock'un aktivliyini göstərir",
        "Description[bg]": "Показва дали са активни Caps Lock или Num Lock",
        "Description[ca@valencia]": "Mostra si està actiu el bloqueig de «Bloq Maj» o «Bloq Núm»",
        "Description[ca]": "Mostra si està actiu el bloqueig de «Bloq Maj» o «Bloq Núm»",
        "Description[cs]": "Zobrazit, zda je CapsLock nebo NumLock aktivní",
        "Description[de]": "Zeigt an, ob die Feststelltaste oder Nummernblocksperre aktiv sind",
        "Description[en_GB]": "Shows whether Caps Lock or Num Lock are active",
        "Description[eo]": "Montras ĉu Majŝlosilo aŭ Numŝlosilo estas aktivaj",
        "Description[es]": "Muestra si BloqNum o BloqMayúsculas están activadas",
        "Description[eu]": "«Blok Maius» edo «Blok Zk» aktibatu diren erakusten du",
        "Description[fi]": "Näyttää, ovatko vaihto- ja numerolukko käytössä",
        "Description[fr]": "Affiche l'état du verrouillage des majuscules et du pavé numérique",
        "Description[gl]": "Mostra se as teclas de bloquear maiúsculas e de bloqueo numérico están activas.",
        "Description[ia]": "Monstra si clave de Caps Lock o Num Lock es active",
        "Description[id]": "Menunjukkan apakah Caps Lock atau Num Lock aktif",
        "Description[is]": "Sýnir hvort læsilyklar eins og Caps Lock eða Num Lock séu virkir",
        "Description[it]": "Mostra se Bloc Maiusc o Bloc Num sono attivi",
        "Description[ja]": "Caps Lock または Num Lock が有効かどうか表示します",
        "Description[ka]": "CapsLock-ის და NumLock-ის ჩართულობის ჩვენება",
        "Description[ko]": "Caps Lock이나 Num Lock 키 활성화 여부 표시",
        "Description[lt]": "Rodyti ar įjungtos didžiosios raidės ar skaitmeninė klaviatūra",
        "Description[nl]": "Toont of Caps Lock of Num Lock actief zijn",
        "Description[nn]": "Vis om «Caps Lock» og «Num Lock» er på av eller av",
        "Description[pl]": "Pokazuje czy Caps Lock oraz Num Lock są włączone",
        "Description[pt]": "Mostra se o Caps Lock ou o Num Lock estão activos",
        "Description[pt_BR]": "Mostra quando o Caps Lock ou Num Lock estão ativos",
        "Description[ro]": "Arată dacă Caps Lock sau Num Lock sunt active",
        "Description[ru]": "Отображение состояние режимов Caps Lock и Num Lock",
        "Description[sk]": "Zobrazuje, či sú aktívne klávesy Caps Lock alebo Num Lock",
        "Description[sl]": "Pokaži ali je aktivna tipka Caps lock ali Num lock",
        "Description[sv]": "Visar om Caps Lock eller Num Lock är aktiva",
        "Description[tr]": "Büyük Harf veya Sayı Kilidi'nin etkin olup olmadığını gösterir",
        "Description[uk]": "Показує, чи задіяно Caps Lock або Num Lock",
        "Description[vi]": "Cho biết Caps Lock hay Num Lock có đang hoạt động không",
        "Description[x-test]": "xxShows whether Caps Lock or Num Lock are activexx",
        "Description[zh_CN]": "显示大写或小键盘数字锁定键的激活状态",
        "Description[zh_TW]": "顯示大寫鎖定 (Caps Lock) 或數字鎖定 (Num Lock) 是否開啟",
        "EnabledByDefault": true,
        "Icon": "input-caps-on",
        "Id": "org.kde.plasma.keyboardindicator",
        "License": "GPL-2.0+",
        "Name": "Lock Keys Status",
        "Name[ar]": "حالة قفل المفاتيح",
        "Name[az]": "Düymələrin vəziyyətini kilidləyin",
        "Name[bg]": "Статус на заключващите клавиши",
        "Name[ca@valencia]": "Estat de les tecles de bloqueig",
        "Name[ca]": "Estat de les tecles de bloqueig",
        "Name[cs]": "Uzamknout stav kláves",
        "Name[de]": "Sperrtastenstatus",
        "Name[en_GB]": "Lock Keys Status",
        "Name[eo]": "Klavoŝlosa Statuso",
        "Name[es]": "Estado de las teclas de bloqueo",
        "Name[eu]": "Giltzatzeko teklen egoera",
        "Name[fi]": "Lukitusnäppäinten tila",
        "Name[fr]": "État des touches de verrouillage",
        "Name[gl]": "Estado das teclas bloqueantes",
        "Name[ia]": "Status de claves de blocar",
        "Name[id]": "Status Tombol Kunci",
        "Name[is]": "Staða læsingarlykla",
        "Name[it]": "Stato della permanenza dei tasti",
        "Name[ja]": "ロックキーの状態",
        "Name[ka]": "დაბლოკვის გასაღების სტატუსი",
        "Name[ko]": "잠금 키 상태",
        "Name[lt]": "Užrakto klavišų būsena",
        "Name[nl]": "Status van vergrendeltoetsen",
        "Name[nn]": "Låsetast-status",
        "Name[pl]": "Stan zablokowania klawiszy",
        "Name[pt]": "Estado das Teclas Bloqueantes",
        "Name[pt_BR]": "Status das teclas de bloqueio",
        "Name[ro]": "Starea blocării tastelor",
        "Name[ru]": "Состояние фиксации режимов клавиш",
        "Name[sk]": "Stav zámku klávesov",
        "Name[sl]": "Lock Keys Status",
        "Name[sv]": "Status för låstangenter",
        "Name[tr]": "Kilit Düğmeleri Durumu",
        "Name[uk]": "Стан клавіш блокування",
        "Name[vi]": "Trạng thái các phím khoá",
        "Name[x-test]": "xxLock Keys Statusxx",
        "Name[zh_CN]": "锁定键状态",
        "Name[zh_TW]": "鎖定鍵狀態",
        "Version": "1.0",
        "Website": "https://kde.org/plasma-desktop/"
    },
    "Keywords": "CapsLock;NumLock;",
    "Keywords[x-test]": "xxCapsLockxx;xxNumLockxx;",
    "X-Plasma-API": "declarativeappletscript",
    "X-Plasma-MainScript": "ui/main.qml",
    "X-Plasma-NotificationArea": "true",
    "X-Plasma-NotificationAreaCategory": "Hardware"
}
